Flexible designs
…
4 Assign unique end times to each ID

Create an idata_set including each ID in the run

column includes end  this will be the simulation end time

idata <- data_frame(ID = 1:100) 
idata <- mutate(idata, end = sample(c(1,2,3,4)*168, n(), replace = TRUE))
idata

. # A tibble: 100 x 2
.       ID   end
.    <int> <dbl>
.  1     1   672
.  2     2   672
.  3     3   504
.  4     4   336
.  5     5   336
.  6     6   504
.  7     7   168
.  8     8   504
.  9     9   672
. 10    10   168
. # ... with 90 more rows
…
