Fc-OPG PK/PD in healthy post-menopausal women
…
Also note

We update param with ith row from post

We update OMEGA and SIGMA from the ith position in the appropriate list of matrices

We will capture the current

It is easy to test the function. The 10th replicate will look like this

sim(10,sc3,des)

. # A tibble: 200 x 7
.       ID  time     PDDV  irep TVIC50  TVQ1 TVVMAX
.    <dbl> <dbl>    <dbl> <dbl>  <dbl> <dbl>  <dbl>
.  1     1     0 73.24125    10  4.849 18.04  10930
.  2     1   336 84.45242    10  4.849 18.04  10930
.  3     2     0 40.86646    10  4.849 18.04  10930
.  4     2   336 14.80692    10  4.849 18.04  10930
.  5     3     0 31.80177    10  4.849 18.04  10930
.  6     3   336 26.94407    10  4.849 18.04  10930
.  7     4     0 15.95565    10  4.849 18.04  10930
.  8     4   336 13.16099    10  4.849 18.04  10930
.  9     5     0 26.56274    10  4.849 18.04  10930
. 10     5   336 21.47061    10  4.849 18.04  10930
. # ... with 190 more rows
…
