Simulate from Emperical Bayes Estimates
…
So, lets summarize.

sims <- as_data_frame(out)

Calculate AUC by trapezoidal rule

auc <- 
  sims %>% 
  AUC(., dv = "CP") %>% 
  dplyr::rename(tAUC = AUC) %>%
  as_data_frame

auc

. # A tibble: 79 x 2
.       ID      tAUC
.    <dbl>     <dbl>
.  1     1 111.99044
.  2     2  96.90548
.  3     3  85.71918
.  4     4 119.06652
.  5     5  59.57582
.  6     6 175.10477
.  7     7 108.76659
.  8     8 121.66437
.  9     9 105.04202
. 10    10  77.49935
. # ... with 69 more rows

Recall that we carried CL into the simulated data. Lets calculate AUC through CL and DOSE to see how it matches up

auc2 <- 
  sims %>%
  distinct(ID,DOSE,CL) %>%
  mutate(pAUC = 3*DOSE/CL) %>% 
  ungroup

auc2

. # A tibble: 79 x 4
.       ID  DOSE      CL      pAUC
.    <dbl> <dbl>   <dbl>     <dbl>
.  1     1   500 13.3940 111.99044
.  2     2   500 15.4790  96.90548
.  3     3   500 17.4990  85.71918
.  4     4   500 12.5980 119.06652
.  5     5   500 25.1780  59.57582
.  6     6   500  8.5663 175.10477
.  7     7   500 13.7910 108.76659
.  8     8   500 12.3290 121.66437
.  9     9   500 14.2800 105.04202
. 10    10   500 19.3550  77.49935
. # ... with 69 more rows

Calculate Cmin and Cmax

minmax <- sims %>% 
  group_by(ID,DOSE,DUR) %>% 
  summarise(Cmin = min(CP), Cmax = max(CP)) %>% 
  ungroup

minmax

. # A tibble: 79 x 5
.       ID  DOSE   DUR       Cmin     Cmax
.    <dbl> <dbl> <dbl>      <dbl>    <dbl>
.  1     1   500   0.5 0.36860268 27.98925
.  2     2   500   0.5 0.24687879 24.87659
.  3     3   500   0.5 0.25383755 23.87022
.  4     4   500   0.5 0.69103830 23.48125
.  5     5   500   0.5 0.06992704 23.63169
.  6     6   500   0.5 1.09212078 34.07386
.  7     7   500   0.5 0.69898400 30.19700
.  8     8   500   0.5 0.54289711 27.55154
.  9     9   500   0.5 0.47855135 18.96082
. 10    10   500   0.5 0.18614336 24.24134
. # ... with 69 more rows
…
summ <- tidyr::gather(sum, variable, value, c(tAUC,pAUC,Cmin,Cmax))

Summary of exposure metrics

summ %>% 
  ungroup %>%
  group_by(DOSE,DUR,variable) %>%
  summarise(Med = median(value), 
            Mean = mean(value),
            Min = min(value),
            Max = max(value),
            N=n())  %>% as_data_frame

. # A tibble: 24 x 8
.     DOSE   DUR variable         Med        Mean         Min        Max
.    <dbl> <dbl>    <chr>       <dbl>       <dbl>       <dbl>      <dbl>
.  1   500   0.5     Cmax  24.5589642  25.8235111 18.96081919  34.073858
.  2   500   0.5     Cmin   0.4235770   0.6870022  0.03206795   3.384693
.  3   500   0.5     pAUC 106.9043019 114.6315659 59.57582016 218.623836
.  4   500   0.5     tAUC 106.9043019 114.6315657 59.57582016 218.623833
.  5   500   3.0     Cmax   8.9306285   9.3873075  3.79899884  12.574414
.  6   500   3.0     Cmin   0.6096205   0.7866047  0.03208532   1.940661
.  7   500   3.0     pAUC  95.2441425 104.1431192 35.64215279 154.894672
.  8   500   3.0     tAUC  95.2441425 104.1431191 35.64215278 154.894672
.  9  1000   0.5     Cmax  51.0383087  50.8390631 40.22526641  67.417624
. 10  1000   0.5     Cmin   0.4205332   1.0580385  0.04042681   4.574641
. # ... with 14 more rows, and 1 more variables: N <int>
